…
Problem 9. (5 points) Among the YNP wolf packs, which one has had the highest overall persistence `persisty1` for the years represented in the data? Look this pack up online and tell me what is unique about its behavior- specifically, what prey animals does this pack specialize on?  
*The pack mollies have the highest overall persistence over the years.*
*This pack preys on bisons with the help of snow, as snow makes bison harder to feed and move. The mollies pack chases bison to deep snow and attack them more easily.*

```r
ynp %>% 
  group_by(pack) %>% 
  summarize(sum_overall_persistence=sum(persisty1)) %>% 
  arrange(desc(sum_overall_persistence))
```

```
## # A tibble: 46 × 2
##    pack        sum_overall_persistence
##    <chr>                         <int>
##  1 mollies                          26
##  2 cougar                           20
##  3 yelldelta                        18
##  4 leopold                          12
##  5 agate                            10
##  6 8mile                             9
##  7 canyon                            9
##  8 gibbon/mary                       9
##  9 junction                          8
## 10 lamar                             8
## # ℹ 36 more rows
```

Problem 10. (3 points) Perform one analysis or exploration of your choice on the `wolves` data. Your answer needs to include at least two lines of code and not be a summary function.  
*The largest average of packsize through the years is 18.66 of the oxbow pack*

```r
ynp %>% 
  group_by(pack) %>% 
  summarize(mean_pack_size=mean(packsize_aug),
            sd_pack_size=sd(packsize_aug),
            n_packs=n()) %>% 
  arrange(desc(mean_pack_size))
```

```
## # A tibble: 46 × 4
##    pack      mean_pack_size sd_pack_size n_packs
##    <chr>              <dbl>        <dbl>   <int>
##  1 oxbow               18.7         6.11       3
##  2 8mile               18.2         4.49       9
##  3 junction            16.6         8.58       8
##  4 leopold             15.7         6.93      13
##  5 slough              15.4         6.02       5
##  6 rose                15.4         5.88       8
##  7 wapiti              15.3         8.12       6
##  8 druid               13.9         9.60      15
##  9 phantom             13           7          3
## 10 yelldelta           12.7         5.67      18
## # ℹ 36 more rows
```
