…
```
## [1] "lakeid"          "fish_id"         "annnumber"       "length"         
## [5] "radii_length_mm" "scalelength"
```


```r
select(fish, "lakeid", "scalelength") # Pull out column of interest, order matters
```

```
## # A tibble: 4,033 × 2
##    lakeid scalelength
##    <chr>        <dbl>
##  1 AL            2.70
##  2 AL            2.70
##  3 AL            2.70
##  4 AL            3.02
##  5 AL            3.02
##  6 AL            3.02
##  7 AL            3.02
##  8 AL            3.34
##  9 AL            3.34
## 10 AL            3.34
## # ℹ 4,023 more rows
```


```r
select(fish, fish_id:length) #gives the columns in between, range of columns
```

```
## # A tibble: 4,033 × 3
##    fish_id annnumber length
##      <dbl> <chr>      <dbl>
##  1     299 EDGE         167
##  2     299 2            167
##  3     299 1            167
##  4     300 EDGE         175
##  5     300 3            175
##  6     300 2            175
##  7     300 1            175
##  8     301 EDGE         194
##  9     301 3            194
## 10     301 2            194
## # ℹ 4,023 more rows
```


```r
select(fish, -"fish_id", -"annnumber", -"length", -"radii_length_mm") # Columns except those (-)
```

```
## # A tibble: 4,033 × 2
##    lakeid scalelength
##    <chr>        <dbl>
##  1 AL            2.70
##  2 AL            2.70
##  3 AL            2.70
##  4 AL            3.02
##  5 AL            3.02
##  6 AL            3.02
##  7 AL            3.02
##  8 AL            3.34
##  9 AL            3.34
## 10 AL            3.34
## # ℹ 4,023 more rows
```


```r
select(fish, contains("length")) #pull out all data with length
```

```
## # A tibble: 4,033 × 3
##    length radii_length_mm scalelength
##     <dbl>           <dbl>       <dbl>
##  1    167            2.70        2.70
##  2    167            2.04        2.70
##  3    167            1.31        2.70
##  4    175            3.02        3.02
##  5    175            2.67        3.02
##  6    175            2.14        3.02
##  7    175            1.23        3.02
##  8    194            3.34        3.34
##  9    194            2.97        3.34
## 10    194            2.29        3.34
## # ℹ 4,023 more rows
```


```r
select(fish, starts_with("radii")) #pull out all variable starts with
```

```
## # A tibble: 4,033 × 1
##    radii_length_mm
##              <dbl>
##  1            2.70
##  2            2.04
##  3            1.31
##  4            3.02
##  5            2.67
##  6            2.14
##  7            1.23
##  8            3.34
##  9            2.97
## 10            2.29
## # ℹ 4,023 more rows
```


```r
select(fish, ends_with("id"))
```

```
## # A tibble: 4,033 × 2
##    lakeid fish_id
##    <chr>    <dbl>
##  1 AL         299
##  2 AL         299
##  3 AL         299
##  4 AL         300
##  5 AL         300
##  6 AL         300
##  7 AL         300
##  8 AL         301
##  9 AL         301
## 10 AL         301
## # ℹ 4,023 more rows
```
Options to select columns based on a specific criteria include:  
1. ends_with() = Select columns that end with a character string  
2. contains() = Select columns that contain a character string  
3. matches() = Select columns that match a regular expression  
4. one_of() = Select columns names that are from a group of names 


```r
select(fish, matches("a.+er")) # look at variables of interest
```

```
## # A tibble: 4,033 × 1
##    annnumber
##    <chr>    
##  1 EDGE     
##  2 2        
##  3 1        
##  4 EDGE     
##  5 3        
##  6 2        
##  7 1        
##  8 EDGE     
##  9 3        
## 10 2        
## # ℹ 4,023 more rows
```

Select columns based on class of data:

```r
select_if(fish, is.numeric) #pull out all numerics
```

```
## # A tibble: 4,033 × 4
##    fish_id length radii_length_mm scalelength
##      <dbl>  <dbl>           <dbl>       <dbl>
##  1     299    167            2.70        2.70
##  2     299    167            2.04        2.70
##  3     299    167            1.31        2.70
##  4     300    175            3.02        3.02
##  5     300    175            2.67        3.02
##  6     300    175            2.14        3.02
##  7     300    175            1.23        3.02
##  8     301    194            3.34        3.34
##  9     301    194            2.97        3.34
## 10     301    194            2.29        3.34
## # ℹ 4,023 more rows
```

Select all columns that are *not* a class of data, you need to add a `~`.:

```r
select_if(fish, ~!is.numeric(.)) #select if in fish data, look across all variables dont select numeric(!)
```

```
## # A tibble: 4,033 × 2
##    lakeid annnumber
##    <chr>  <chr>    
##  1 AL     EDGE     
##  2 AL     2        
##  3 AL     1        
##  4 AL     EDGE     
##  5 AL     3        
##  6 AL     2        
##  7 AL     1        
##  8 AL     EDGE     
##  9 AL     3        
## 10 AL     2        
## # ℹ 4,023 more rows
```
…
# Lab 4.2-"Transforming data 2: `filter()`"
## `filter()`
Allows us to extract data that meet specific criteria in a variable.

+ `filter()` allows all of the expected operators; i.e. >, >=, <, <=, != (not equal), and == (equal).  

```r
filter(fish, lakeid == "AL") # use == "", using select is bad practice
```

```
## # A tibble: 383 × 6
##    lakeid fish_id annnumber length radii_length_mm scalelength
##    <chr>    <dbl> <chr>      <dbl>           <dbl>       <dbl>
##  1 AL         299 EDGE         167            2.70        2.70
##  2 AL         299 2            167            2.04        2.70
##  3 AL         299 1            167            1.31        2.70
##  4 AL         300 EDGE         175            3.02        3.02
##  5 AL         300 3            175            2.67        3.02
##  6 AL         300 2            175            2.14        3.02
##  7 AL         300 1            175            1.23        3.02
##  8 AL         301 EDGE         194            3.34        3.34
##  9 AL         301 3            194            2.97        3.34
## 10 AL         301 2            194            2.29        3.34
## # ℹ 373 more rows
```


```r
filter(fish, length >= 350) # If only interested in fish length greater
```

```
## # A tibble: 890 × 6
##    lakeid fish_id annnumber length radii_length_mm scalelength
##    <chr>    <dbl> <chr>      <dbl>           <dbl>       <dbl>
##  1 AL         306 EDGE         350            6.94        6.94
##  2 AL         306 10           350            6.46        6.94
##  3 AL         306 9            350            6.16        6.94
##  4 AL         306 8            350            5.88        6.94
##  5 AL         306 7            350            5.42        6.94
##  6 AL         306 6            350            4.90        6.94
##  7 AL         306 5            350            4.46        6.94
##  8 AL         306 4            350            3.75        6.94
##  9 AL         306 3            350            2.93        6.94
## 10 AL         306 2            350            2.14        6.94
## # ℹ 880 more rows
```
…
```r
filter(fish, near(radii_length_mm, 2, tol = 0.2)) #look for radii length near 2, but within 0.2 tolerance
```

```
## # A tibble: 291 × 6
##    lakeid fish_id annnumber length radii_length_mm scalelength
##    <chr>    <dbl> <chr>      <dbl>           <dbl>       <dbl>
##  1 AL         299 2            167            2.04        2.70
##  2 AL         300 2            175            2.14        3.02
##  3 AL         302 2            324            2.19        6.07
##  4 AL         303 2            325            2.04        6.79
##  5 AL         306 2            350            2.14        6.94
##  6 AL         308 2            355            1.86        6.67
##  7 AL         312 2            367            2.17        6.81
##  8 AL         313 2            367            2.06        6.47
##  9 AL         315 2            372            2.04        6.47
## 10 AL         316 2            372            1.82        6.35
## # ℹ 281 more rows
```

## Using `filter()` on multiple conditions

```r
filter(fish, lakeid == "AL" & length > 350) # AND
```

```
## # A tibble: 314 × 6
##    lakeid fish_id annnumber length radii_length_mm scalelength
##    <chr>    <dbl> <chr>      <dbl>           <dbl>       <dbl>
##  1 AL         307 EDGE         353            7.55        7.55
##  2 AL         307 13           353            7.28        7.55
##  3 AL         307 12           353            6.98        7.55
##  4 AL         307 11           353            6.73        7.55
##  5 AL         307 10           353            6.48        7.55
##  6 AL         307 9            353            6.22        7.55
##  7 AL         307 8            353            5.92        7.55
##  8 AL         307 7            353            5.44        7.55
##  9 AL         307 6            353            5.06        7.55
## 10 AL         307 5            353            4.37        7.55
## # ℹ 304 more rows
```


```r
filter(fish, lakeid == "AL" | length > 350) # OR
```

```
## # A tibble: 948 × 6
##    lakeid fish_id annnumber length radii_length_mm scalelength
##    <chr>    <dbl> <chr>      <dbl>           <dbl>       <dbl>
##  1 AL         299 EDGE         167            2.70        2.70
##  2 AL         299 2            167            2.04        2.70
##  3 AL         299 1            167            1.31        2.70
##  4 AL         300 EDGE         175            3.02        3.02
##  5 AL         300 3            175            2.67        3.02
##  6 AL         300 2            175            2.14        3.02
##  7 AL         300 1            175            1.23        3.02
##  8 AL         301 EDGE         194            3.34        3.34
##  9 AL         301 3            194            2.97        3.34
## 10 AL         301 2            194            2.29        3.34
## # ℹ 938 more rows
```


```r
filter(fish, length > 400, (scalelength > 11 | radii_length_mm > 8)) # Can also nest to be more specific
```

```
## # A tibble: 23 × 6
##    lakeid fish_id annnumber length radii_length_mm scalelength
##    <chr>    <dbl> <chr>      <dbl>           <dbl>       <dbl>
##  1 AL         324 EDGE         406            8.21        8.21
##  2 AL         327 EDGE         413            8.33        8.33
##  3 AL         327 15           413            8.11        8.33
##  4 AL         328 EDGE         420            8.71        8.71
##  5 AL         328 16           420            8.41        8.71
##  6 AL         328 15           420            8.14        8.71
##  7 WS         180 EDGE         403           11.0        11.0 
##  8 WS         180 16           403           10.6        11.0 
##  9 WS         180 15           403           10.3        11.0 
## 10 WS         180 14           403            9.93       11.0 
## # ℹ 13 more rows
```
…
# Lab 5.2-"Pipes, `arrange()`
## Pipes `%>%` 
Combines select and filter. 

```r
fish %>% #pipe, use fish data
  select(lakeid, scalelength) %>% #select lakeid and scalelength and use the output of that function
  filter(lakeid == "AL") #to filter out observation of interest (lake AL)
```

```
## # A tibble: 383 × 2
##    lakeid scalelength
##    <chr>        <dbl>
##  1 AL            2.70
##  2 AL            2.70
##  3 AL            2.70
##  4 AL            3.02
##  5 AL            3.02
##  6 AL            3.02
##  7 AL            3.02
##  8 AL            3.34
##  9 AL            3.34
## 10 AL            3.34
## # ℹ 373 more rows
```
…
## `arrange()`

```r
fish %>% 
  select(lakeid, scalelength) %>% 
  arrange(scalelength) # like a sort command in excel, default is ascending order
```

```
## # A tibble: 4,033 × 2
##    lakeid scalelength
##    <chr>        <dbl>
##  1 WS           0.628
##  2 WS           0.637
##  3 LSG          0.773
##  4 WS           0.832
##  5 LSG          1.15 
##  6 WS           1.41 
##  7 WS           1.41 
##  8 WS           1.41 
##  9 BO           1.43 
## 10 BO           1.43 
## # ℹ 4,023 more rows
```


```r
fish %>% 
  select(lakeid, scalelength) %>% 
  arrange(desc(scalelength)) # To sort in decreasing order
```

```
## # A tibble: 4,033 × 2
##    lakeid scalelength
##    <chr>        <dbl>
##  1 WS            11.0
##  2 WS            11.0
##  3 WS            11.0
##  4 WS            11.0
##  5 WS            11.0
##  6 WS            11.0
##  7 WS            11.0
##  8 WS            11.0
##  9 WS            11.0
## 10 WS            11.0
## # ℹ 4,023 more rows
```

# Lab 6.1-"`mutate()`, and `if_else()`"
## `mutate()` 

```r
fish %>% 
  mutate(length_mm = length*10) %>%  #Create a new column from existing columns
  select(fish_id, length, length_mm)
```

```
## # A tibble: 4,033 × 3
##    fish_id length length_mm
##      <dbl>  <dbl>     <dbl>
##  1     299    167      1670
##  2     299    167      1670
##  3     299    167      1670
##  4     300    175      1750
##  5     300    175      1750
##  6     300    175      1750
##  7     300    175      1750
##  8     301    194      1940
##  9     301    194      1940
## 10     301    194      1940
## # ℹ 4,023 more rows
```
…
