…
```
## [1] "factor"
```


**4. What taxa are represented in the `homerange` data frame? Make a new data frame `taxa` that is restricted to taxon, common name, class, order, family, genus, species.**  

```r
taxa <- select(homerange, "taxon", "common_name", "class", "order", "family", "genus", "species")
taxa
```

```
## # A tibble: 569 × 7
##    taxon         common_name             class        order family genus species
##    <fct>         <chr>                   <chr>        <fct> <chr>  <chr> <chr>  
##  1 lake fishes   american eel            actinoptery… angu… angui… angu… rostra…
##  2 river fishes  blacktail redhorse      actinoptery… cypr… catos… moxo… poecil…
##  3 river fishes  central stoneroller     actinoptery… cypr… cypri… camp… anomal…
##  4 river fishes  rosyside dace           actinoptery… cypr… cypri… clin… fundul…
##  5 river fishes  longnose dace           actinoptery… cypr… cypri… rhin… catara…
##  6 river fishes  muskellunge             actinoptery… esoc… esoci… esox  masqui…
##  7 marine fishes pollack                 actinoptery… gadi… gadid… poll… pollac…
##  8 marine fishes saithe                  actinoptery… gadi… gadid… poll… virens 
##  9 marine fishes lined surgeonfish       actinoptery… perc… acant… acan… lineat…
## 10 marine fishes orangespine unicornfish actinoptery… perc… acant… naso  litura…
## # ℹ 559 more rows
```
…
**10. As measured by the data, which bird species has the largest homerange? Show all of your work, please. Look this species up online and tell me about it!**.  
Caracara is the largest homerange. It is a falcon that is characterized by long legs and medium size. 

```r
homerange %>% 
  select(taxon, common_name, mean_hra_m2) %>% 
  filter(taxon == "birds") %>% 
  arrange(desc(mean_hra_m2))
```

```
## # A tibble: 140 × 3
##    taxon common_name            mean_hra_m2
##    <fct> <chr>                        <dbl>
##  1 birds caracara                 241000000
##  2 birds Montagu's harrier        200980000
##  3 birds peregrine falcon         153860000
##  4 birds booted eagle             117300000
##  5 birds ostrich                   84300000
##  6 birds short-toed snake eagle    78500000
##  7 birds European turtle dove      63585000
##  8 birds Egyptian vulture          63570000
##  9 birds common buzzard            50240000
## 10 birds lanner falcon             50000000
## # ℹ 130 more rows
```
…
