…
2. Notice that we have some neutral superheros! Who are they? List their names below.  

```r
superhero_info %>% 
  filter(alignment == "neutral")
```

```
## # A tibble: 24 × 10
##    name  gender eye_color race  hair_color height publisher skin_color alignment
##    <chr> <chr>  <chr>     <chr> <chr>       <dbl> <chr>     <chr>      <chr>    
##  1 Biza… Male   black     Biza… Black         191 DC Comics white      neutral  
##  2 Blac… Male   <NA>      God … <NA>           NA DC Comics <NA>       neutral  
##  3 Capt… Male   brown     Human Brown          NA DC Comics <NA>       neutral  
##  4 Copy… Female red       Muta… White         183 Marvel C… blue       neutral  
##  5 Dead… Male   brown     Muta… No Hair       188 Marvel C… <NA>       neutral  
##  6 Deat… Male   blue      Human White         193 DC Comics <NA>       neutral  
##  7 Etri… Male   red       Demon No Hair       193 DC Comics yellow     neutral  
##  8 Gala… Male   black     Cosm… Black         876 Marvel C… <NA>       neutral  
##  9 Glad… Male   blue      Stro… Blue          198 Marvel C… purple     neutral  
## 10 Indi… Female <NA>      Alien Purple         NA DC Comics <NA>       neutral  
## # ℹ 14 more rows
## # ℹ 1 more variable: weight <dbl>
```
…
## Not Human
4. List all of the superheros that are not human.

```r
new_superhero_info %>% 
  filter(race != "Human")
```

```
## # A tibble: 222 × 3
##    name         alignment race             
##    <chr>        <chr>     <chr>            
##  1 Abe Sapien   good      Icthyo Sapien    
##  2 Abin Sur     good      Ungaran          
##  3 Abomination  bad       Human / Radiation
##  4 Abraxas      bad       Cosmic Entity    
##  5 Ajax         bad       Cyborg           
##  6 Alien        bad       Xenomorph XX121  
##  7 Amazo        bad       Android          
##  8 Angel        good      Vampire          
##  9 Angel Dust   good      Mutant           
## 10 Anti-Monitor bad       God / Eternal    
## # ℹ 212 more rows
```
…
8. Among the bad guys, who are the male humans over 200 inches in height?

```r
bad_guys %>% 
  filter(height > 200)
```

```
## # A tibble: 25 × 10
##    name  gender eye_color race  hair_color height publisher skin_color alignment
##    <chr> <chr>  <chr>     <chr> <chr>       <dbl> <chr>     <chr>      <chr>    
##  1 Abom… Male   green     Huma… No Hair       203 Marvel C… <NA>       bad      
##  2 Alien Male   <NA>      Xeno… No Hair       244 Dark Hor… black      bad      
##  3 Amazo Male   red       Andr… <NA>          257 DC Comics <NA>       bad      
##  4 Apoc… Male   red       Muta… Black         213 Marvel C… grey       bad      
##  5 Bane  Male   <NA>      Human <NA>          203 DC Comics <NA>       bad      
##  6 Bloo… Female blue      Human Brown         218 Marvel C… <NA>       bad      
##  7 Dark… Male   red       New … No Hair       267 DC Comics grey       bad      
##  8 Doct… Male   brown     Human Brown         201 Marvel C… <NA>       bad      
##  9 Doct… Male   brown     <NA>  Brown         201 Marvel C… <NA>       bad      
## 10 Doom… Male   red       Alien White         244 DC Comics <NA>       bad      
## # ℹ 15 more rows
## # ℹ 1 more variable: weight <dbl>
```
…
11. Let's make a new variable that is the ratio of height to weight. Call this variable `height_weight_ratio`.

```r
superhero_info %>% 
  mutate(height_weight_ratio = height/weight) %>% 
  arrange(desc(height_weight_ratio))
```

```
## # A tibble: 734 × 11
##    name  gender eye_color race  hair_color height publisher skin_color alignment
##    <chr> <chr>  <chr>     <chr> <chr>       <dbl> <chr>     <chr>      <chr>    
##  1 Groot Male   yellow    Flor… <NA>          701 Marvel C… <NA>       good     
##  2 Gala… Male   black     Cosm… Black         876 Marvel C… <NA>       neutral  
##  3 Fin … Male   red       Kaka… No Hair       975 Marvel C… green      good     
##  4 Long… Male   blue      Human Blond         188 Marvel C… <NA>       good     
##  5 Jack… Male   blue      Human Brown          71 Dark Hor… <NA>       good     
##  6 Rock… Male   brown     Anim… Brown         122 Marvel C… <NA>       good     
##  7 Dash  Male   blue      Human Blond         122 Dark Hor… <NA>       good     
##  8 Howa… Male   brown     <NA>  Yellow         79 Marvel C… <NA>       good     
##  9 Swarm Male   yellow    Muta… No Hair       196 Marvel C… yellow     bad      
## 10 Yoda  Male   brown     Yoda… White          66 George L… green      good     
## # ℹ 724 more rows
## # ℹ 2 more variables: weight <dbl>, height_weight_ratio <dbl>
```
…
```r
superhero_powers <- clean_names(superhero_powers) #Clean names for super hero powers
```


```r
superhero_powers %>% 
  select(agility, stealth, super_strength, stamina) %>% 
  filter(agility == "TRUE", stealth == "TRUE", super_strength == "TRUE", stamina == "TRUE")
```

```
## # A tibble: 40 × 4
##    agility stealth super_strength stamina
##    <lgl>   <lgl>   <lgl>          <lgl>  
##  1 TRUE    TRUE    TRUE           TRUE   
##  2 TRUE    TRUE    TRUE           TRUE   
##  3 TRUE    TRUE    TRUE           TRUE   
##  4 TRUE    TRUE    TRUE           TRUE   
##  5 TRUE    TRUE    TRUE           TRUE   
##  6 TRUE    TRUE    TRUE           TRUE   
##  7 TRUE    TRUE    TRUE           TRUE   
##  8 TRUE    TRUE    TRUE           TRUE   
##  9 TRUE    TRUE    TRUE           TRUE   
## 10 TRUE    TRUE    TRUE           TRUE   
## # ℹ 30 more rows
```
…
